{
    "data": {
        "companyId": "56e6bacf33ad6f31b2870628",
        "country": "FRA",
        "displayName": "iOS Tester",
        "isActivated": true,
        "jid_im": "fake_iostester_jid@openrainbow.com",
        "jid_tel": "tel_fake_iostester_jid@openrainbow.com",
        "latin_displayName": "iOS Tester",
        "loginEmail": "ios.tester@al-enterprise.com",
        "conversations": [],
        "sources": [],
        "loggedSince": "2016-04-14T12:06:02.083Z",
        "lastLoginDate": "2016-04-14T12:06:02.083Z",
        "firstLoginDate": "2016-03-18T15:22:50.510Z",
        "sponsoring": {
            "invitationsAcceptedByList": []
        },
        "createdBySelfRegister": false,
        "initializationDate": "2016-03-14T13:27:16.137Z",
        "isInitialized": true,
        "activationDate": "2016-03-14T13:27:16.137Z",
        "creationDate": "2016-01-13T08:39:37.779Z",
        "accountType": "free",
        "roles": [
                  "user"
                  ],
        "isActive": true,
        "lastName": "Tester",
        "firstName": "iOS",
        "id": "56e6bc34c219157cb207e813"
    }
 }