{
    "data":[
            {
            "name": "Chat room 1",
            "topic": "Easter holidays",
            "jid": "room1@muc.mycompany.com",
            "creator": "56e6bc34c219157cb207e813",
            "users": [
                      {
                      "userId": "56e05bb83456faf3384272ee",
                      "additionDate": "2016-03-28T18:27:11.181Z",
                      "privilege": "user",
                      "jid_im":"c2bd56bf4ce54225a2bec296fb76e817@jerome-all-in-one-dev-1.opentouch.cloud",
                      "status":"invited",
                      },
                      {
                      "userId": "56e6bc34c219157cb207e813",
                      "additionDate": "2016-03-29T18:27:11.181Z",
                      "privilege": "moderator",
                      "jid_im":"fake_iostester_jid@openrainbow.com",
                      "status":"accepted",
                      }
                      ],
            "creationDate": "2016-03-28T18:27:10.970Z",
            "visibility": "private",
            "id": "57e3d2db87c0b9a19e574926"
            },
            {
            "name": "Chat room",
            "topic": "",
            "jid": "room@muc.mycompany.com",
            "creator": "56e05bb83456faf3384272ee",
            "users": [
                      {
                      "userId": "56e05bb83456faf3384272ee",
                      "additionDate": "2016-03-28T18:27:11.181Z",
                      "privilege": "moderator",
                      "jid_im":"c2bd56bf4ce54225a2bec296fb76e817@jerome-all-in-one-dev-1.opentouch.cloud",
                      "status":"accepted",
                      },
                      {
                      "userId": "56e6bc34c219157cb207e813",
                      "additionDate": "2016-03-29T18:27:11.181Z",
                      "privilege": "user",
                      "jid_im":"fake_iostester_jid@openrainbow.com",
                      "status":"invited",
                      }
                      ],
            "creationDate": "2016-03-29T18:27:10.970Z",
            "visibility": "private",
            "id": "57e3d2db87c0b9a19e574927"
            },
            {
            "name": "Chat room to leave",
            "topic": "",
            "jid": "roomLeave@muc.mycompany.com",
            "creator": "56e05bb83456faf3384272ee",
            "users": [
                      {
                      "userId": "56e05bb83456faf3384272ee",
                      "additionDate": "2016-03-28T18:27:11.181Z",
                      "privilege": "moderator",
                      "jid_im":"c2bd56bf4ce54225a2bec296fb76e817@jerome-all-in-one-dev-1.opentouch.cloud",
                      "status":"accepted",
                      },
                      {
                      "userId": "56e6bc34c219157cb207e813",
                      "additionDate": "2016-03-29T18:27:11.181Z",
                      "privilege": "user",
                      "jid_im":"fake_iostester_jid@openrainbow.com",
                      "status":"accepted",
                      }
                      ],
            "creationDate": "2016-03-20T18:27:10.970Z",
            "visibility": "private",
            "id": "57e3d2db87c0b9a19e574928"
            }
            ],
    "limit":100,
    "offset":0,
    "total":3
}
