{
    "data": {
        "userId": "56e05bb83456faf3384272ef",
        "additionDate": "2016-03-29T12:17:17.984Z",
        "privilege": "user",
        "status": "invited",
        "jid_im": "c2bd56bf4ce54225a2bec296fb76e818@jerome-all-in-one-dev-1.opentouch.cloud"
    }
}