{
    "data" : [
              {
              "displayName": "Marcel DUPONT",
              "emails": [{
                         "email": "marcel.dupont@al-enterprise.com",
                         "type": "work"
                         }],
              "phones": [
              
              ],
              "firstName": "Marcel",
              "nickName": "Marcel",
              "jobTitle": "SysAdmin",
              "jid_im": "1234@openrainbow.com",
              "jid_tel": "tel_1234@openrainbow.com",
              "lastAvatarUpdateDate": "2016-06-29T16:36:11.728Z",
              "lastName": "Dupont",
              "companyName": "AL-Enterprise",
              "loginEmail": "1234@test.com",
              "id": "333",
              "companyId": "5739d560e7ed0c49ba9e43df"
              }
              ]
}
