{
    "users": [
              {
              "displayName": "fake conversation user",
              "emails": [
              
              ],
              "firstName": "Fake",
              "jid_im": "fake_conversations_at_startup@openrainbow.com",
              "jid_tel": "telfake_conversations_at_startup@openrainbow.com",
              "lastAvatarUpdateDate": "2016-06-29T16:36:11.728Z",
              "lastName": "",
              "companyName": "Default",
              "loginEmail": "fake_conversations_at_startup@openrainbow.com",
              "id": "57599db93c919278a8a20b83",
              "companyId": "5739d560e7ed0c49ba9e43df"
              }
              ],
    "offset": 0,
    "total": 1,
    "limit": 1
}
