{
    "users": [
              {
              "displayName": "Nouvel Ami Other company",
              "emails": [
                {
                    "email": "nouvel.ami@other.com",
                    "type": "work"
                },
              ],
              "phones": [
              
              ],
              "firstName": "Ami",
              "nickName" : "Nvel Ami Other Company",
              "jobTitle" : "SysAdmin Other company",
              "jid_im": "new_friend_not_in_same_company@openrainbow.com",
              "jid_tel": "tel_new_friend_not_in_same_company@openrainbow.com",
              "lastAvatarUpdateDate": "2016-06-29T16:36:11.728Z",
              "lastName": "Nouvel",
              "companyName": "Other company",
              "loginEmail": "nouvel.ami_not_same_company@other.com",
              "id": "2222",
              "companyId": "56e6bacf33ad6f31b2870629"
              }
              ],
    "offset": 0,
    "total": 1,
    "limit": 1
}