{
    "images": [
        {
            "filename": "rainbow_tv.png",
            "idiom": "universal",
            "scale": "1x"
        },
        {
            "filename": "rainbow_tv@2x.png",
            "idiom": "universal",
            "scale": "2x"
        },
        {
            "filename": "rainbow_tv@3x.png",
            "idiom": "universal",
            "scale": "3x"
        }
    ],
    "info": {
        "author": "xcode",
        "template-rendering-intent": "template",
        "version": 1
    }
}
