{
    "data": [
             {
             "id":"56d0000a0261b53142a5c022",
             "peerId":"56d0277a0261b53142a5c000",
             "type": "user",
             "loginEmail": "firstname.lastname@company.com",
             "firstName": "Firstname",
             "lastName": "Lastname",
             "displayName": "Firstname Lastname",
             "jid_im": "fake_conversations_at_startup@openrainbow.com",
             "lastMessageText": "hello",
             "lastMessageDate": "2016-04-21T15:54:46.644Z",
             "unreceivedMessageNumber": 0,
             "unreadMessageNumber": 0,
             "mute" : false
             },
             {
             "id":"56d0000a0261b53142a5c011",
             "peerId":"56f3f51a76e0bf767ed45325",
             "type" : "room",
             "name" : "name of my room",
             "topic" : "topic of my room",
             "jid_im": "room_1d5b831fdc794108924801fb00158f07@openrainbow.com",
             "lastMessageText": "is anybody there?",
             "lastMessageDate": "2016-04-22T09:43:12.324Z",
             "unreceivedMessageNumber": 0,
             "unreadMessageNumber": 1,
             "mute": false
             }
             ]
}