{
    "data": [
             {
             "id": "57cd4346d8793a0d124aa21e",
             "name": "Colleagues",
             "comment": "My comment",
             "owner": "56e6bc34c219157cb207e813",
             "creationDate": "2016-09-03T16:52:34.312Z"
             }
             ],
    "limit": 100,
    "offset": 0,
    "total": 1
}