{
    "data": {
        "id": "57b44e9c0c32e0b425252f9f",
        "name": "GroupOtherDevice",
        "owner": "56e6bc34c219157cb207e813",
        "creationDate": "2016-09-05T10:04:54.312Z",
        "users": [
                  {
                  "id": "5703d6619ccf39843c7ef89d",
                  "loginEmail": "john.doe@my-company.com",
                  "displayName": "John Doe",
                  "firstName": "John",
                  "lastName": "Doe",
                  "jid_im": "0dc8f57b2bb541b6b36f80736bc4e2e8@openrainbow.com",
                  "lastAvatarUpdateDate": "2016-05-24T07:42:15.130Z"
                  }
                  ]
    }
}